        F2ppm           F1ppm       Intensity       
     1  10.2064           97.2697      1967269.94
     2   8.4564          129.9454       943729.44
     3   6.4223          120.9948       375738.47
     4   6.2052          120.9948       860350.88
     5   4.3230           21.2448      2390288.28
     6   3.6879           12.4787       701610.00
     7   3.5980           11.1623      1371440.06
     8   3.1737           36.6988      2721477.09
    