             F2ppm           F1ppm       Intensity 
     1         5.4136           94.6172     42671565.75
     2         4.9823          101.0836     37289996.00
     3         4.2170           79.0091     20880628.13
     4         4.0528           76.6836     21108663.50
     5         4.0409           74.0258     19269794.25
     6         4.0295           68.3880      9160994.38
     7         3.9943           71.7113     41956570.88
     8         3.9445           73.6971     25711082.88
     9         3.8888           83.9885     21632181.25
    10         3.8866           72.0361     10628276.38
    11         3.8299           65.0651      9288794.00
    12         3.8181           71.0430     10653990.63
    13         3.7773           65.0645     12251956.50
    14         3.7537           75.3580     21856874.63
    15         3.7387           63.7411     50660717.50
    16         3.6778           68.3888      9280479.13
    17         3.6658           64.0701     65667167.38
    18         3.5601           73.6961     15784089.25
    19         3.5359           72.0362     21395011.13
