Table of Peaks
No.	(ppm)	Height
1	0.65	0.9903
2	1.17	0.0158
3	1.17	0.0169
4	1.19	0.0549
5	1.21	0.0689
6	1.22	0.0352
7	1.24	0.0252
8	1.25	0.0259
9	1.26	0.0518
10	1.27	0.0505
11	1.28	0.0507
12	1.29	0.0433
13	1.30	0.0321
14	1.30	0.0227
15	1.31	0.0189
16	1.32	0.0429
17	1.32	0.0472
18	1.34	0.0447
19	1.34	0.0509
20	1.36	0.0194
21	1.37	0.0188
22	1.41	0.0306
23	1.42	0.0546
24	1.43	0.0541
25	1.44	0.1027
26	1.46	0.0535
27	1.46	0.0753
28	1.66	0.0259
29	1.67	0.0291
30	1.68	0.0596
31	1.69	0.0676
32	1.70	0.0672
33	1.71	0.0937
34	1.72	0.1016
35	1.73	0.1053
36	1.74	0.0588
37	1.75	0.0507
38	1.75	0.0621
39	1.79	0.0301
40	1.80	0.0378
41	1.82	0.0579
42	1.82	0.0626
43	1.84	0.0298
44	1.84	0.0263
45	2.05	0.0308
46	2.05	0.0359
47	2.07	0.0593
48	2.07	0.0606
49	2.08	0.0510
50	2.09	0.0617
51	2.09	0.0338
52	2.24	0.0445
53	2.25	0.0301
54	2.25	0.0293
55	2.26	0.0451
56	2.26	0.0435
57	2.65	0.0134
58	2.66	0.0203
59	2.68	0.0866
60	2.69	0.1115
61	2.70	0.0484
62	2.71	0.0498
63	2.72	0.0138
64	2.73	0.0118
65	2.74	0.0113
66	3.41	0.1003
67	3.42	0.1443
68	3.42	0.1274
69	3.43	0.1073
70	4.24	0.0329
71	4.25	0.0726
72	4.26	0.0720
73	4.27	0.0325
74	6.42	0.1907
75	6.42	0.1999
76	6.49	0.1039
77	6.49	0.0942
78	6.50	0.1090
79	6.51	0.0971
80	7.03	0.1545
81	7.05	0.1461

Table of Multiplets
No.	Shift1 (ppm)	Hs	TypeJ (Hz)	Atom1		Multiplet1	 (ppm)
1	0.65	3	s	-		18		M13		0.62 .. 0.69
2	1.22	3	m	-		3 10 5		M12		1.15 .. 1.38
3	1.43	2	m	-		9 6		M11		1.39 .. 1.49
4	1.70	3	m	-		9 2 10		M10		1.64 .. 1.77
5	1.79	1	td	-		6		M09		1.78 .. 1.87
6	2.09	1	m	-		4		M08		2.02 .. 2.12
7	2.24	1	m	-		5		M07		2.21 .. 2.29
8	2.67	2	m	-		11		M06		2.64 .. 2.75
9	3.42	1	dd	4.87 3.55	7		M05		3.40 .. 3.44
10	4.25	1	m	-		8		M04		4.23 .. 4.27
11	6.42	1	d	1.98		17		M03		6.39 .. 6.44
12	6.50	1	dd	8.36 2.31	15		M02		6.46 .. 6.54
13	7.04	1	d	8.47		14		M01		7.00 .. 7.07

Table of Assignments
No.	Atom	Exp. Shift (ppm)	Multiplet
1	18	0.65			M13
2	3	1.22			M12
3	10	1.22			M12
4	5	1.22			M12
5	9	1.43			M11
6	6	1.43			M11
7	9	1.70			M10
8	2	1.70			M10
9	10	1.70			M10
10	6	1.79			M09
11	4	2.09			M08
12	5	2.24			M07
13	11	2.67			M06
14	7	3.42			M05
15	8	4.25			M04
16	17	6.42			M03
17	15	6.50			M02
18	14	7.04			M01

